[
  {
    "type": "setup",
    "message0": "setup %1 %2",
    "args0": [
      {
        "type": "input_dummy"
      },
      {
        "type": "input_statement",
        "name": "DO"
      }
    ],
    "colour": 120
  },
  {
    "type": "delay",
    "message0": "Delay %1 %2",
    "args0": [
      {
        "type": "field_dropdown",
        "name": "unit",
        "options": [
          [
            "ms",
            "millisecond"
          ],
          [
            "μs",
            "microsecond"
          ]
        ]
      },
      {
        "type": "input_value",
        "name": "interval"
      }
    ],
    "previousStatement": null,
    "nextStatement": null,
    "colour": 120,
    "inputsInline": true
  }
]