[
  {
    "type": "high_low",
    "message0": "%1",
    "args0": [
      {
        "type": "field_dropdown",
        "name": "state",
        "options": [
          [
            "HIGH",
            "HIGH"
          ],
          [
            "LOW",
            "LOW"
          ]
        ]
      }
    ],
    "output": "String",
    "colour": 10
  },
  {
    "type": "digital_pin_list",
    "message0": "%1",
    "args0": [
      {
        "type": "field_dropdown",
        "name": "digital_pin",
        "options": [
          [
            "0",
            "0"
          ],
          [
            "1",
            "1"
          ],
          [
            "2",
            "2"
          ],
          [
            "3",
            "3"
          ],
          [
            "4",
            "4"
          ],
          [
            "5",
            "5"
          ],
          [
            "6",
            "6"
          ],
          [
            "7",
            "7"
          ],
          [
            "8",
            "8"
          ],
          [
            "9",
            "9"
          ],
          [
            "10",
            "10"
          ],
          [
            "11",
            "11"
          ],
          [
            "12",
            "12"
          ],
          [
            "13",
            "13"
          ]
        ]
      }
    ],
    "output": "String",
    "colour": 10
  },
  {
    "type": "analog_pin_list",
    "message0": "%1",
    "args0": [
      {
        "type": "field_dropdown",
        "name": "analog_pin",
        "options": [
          [
            "A0",
            "A0"
          ],
          [
            "A1",
            "A1"
          ],
          [
            "A2",
            "A2"
          ],
          [
            "A3",
            "A3"
          ],
          [
            "A4",
            "A4"
          ],
          [
            "A5",
            "A5"
          ]
        ]
      }
    ],
    "output": "String",
    "colour": 10
  },
  {
    "type": "pwm_pin_list",
    "message0": "%1",
    "args0": [
      {
        "type": "field_dropdown",
        "name": "pwm_pin",
        "options": [
          [
            "3",
            "3"
          ],
          [
            "5",
            "5"
          ],
          [
            "6",
            "6"
          ],
          [
            "9",
            "9"
          ],
          [
            "10",
            "10"
          ],
          [
            "11",
            "11"
          ]
        ]
      }
    ],
    "output": "String",
    "colour": 10
  },
  {
    "type": "digital_read",
    "message0": "Digital Read PIN# %1",
    "args0": [
      {
        "type": "input_value",
        "name": "D_Pin"
      }
    ],
    "output": "String",
    "colour": 10,
    "inputsInline": true
  },
  {
    "type": "digital_write",
    "message0": "Digital Write PIN# %1 State %2",
    "args0": [
      {
        "type": "input_value",
        "name": "D_Pin"
      },
      {
        "type": "input_value",
        "name": "state"
      }
    ],
    "previousStatement": null,
    "nextStatement": null,
    "colour": 10,
    "inputsInline": true
  },
  {
    "type": "analog_read",
    "message0": "Analog Read PIN# %1",
    "args0": [
      {
        "type": "input_value",
        "name": "A_Pin"
      }
    ],
    "output": "String",
    "colour": 10,
    "inputsInline": true
  },
  {
    "type": "analog_write",
    "message0": "Analog Write PIN# %1 value %2",
    "args0": [
      {
        "type": "input_value",
        "name": "A_Pin"
      },
      {
        "type": "input_value",
        "name": "A_Value"
      }
    ],
    "previousStatement": null,
    "nextStatement": null,
    "colour": 10,
    "inputsInline": true
  }
]